{
  "type": "service_account",
  "project_id": "long-walker-364002",
  "private_key_id": "571a5af707be548ee4718f536d3daeabc58175bf",
  "private_key": "-----BEGIN PRIVATE KEY-----\nMIIEvgIBADANBgkqhkiG9w0BAQEFAASCBKgwggSkAgEAAoIBAQDM7nQneIsZYBVI\nryMPAFV6gwOBaMqE+mQ0G/UB4F4FrlT3wJIftfe0xVJO2gtNRQRpJDz3nyvO2DBH\n75mPISgGaGrpNnw6NyxMKa0kyXSs9TVywUIWLeVV05SNtKhkuGAuhmYvdPAvPkf3\nnTJKT5ebI6g/7L0aRHSdVaK85KMAFBbJ7YVQRgEYl8DiWXLAR/Nj6PC+BS15KWyv\n9sNcmMlU20nN7zdOCXFUbx/C7mqw4yCy9w7nSEYNvbPW5zpCkwBwC4j5s5AubfVm\ngVD7eHOaVIWZsTpeOVbjjZZ+oCd+oUtwbJRA/zVlKdSNWEmP1NR3tvN/Mz0V1Jzr\nQaUCLpiLAgMBAAECggEAC6MQynsAXxkDLGTxlzT8JaBR7yPNuD5luUXLJGeivyzW\nm1j+kzlojwXTdjHQiXs9VGEf6ynJOY4yM6uJ60RFOxPr2kFjTYT7iXmmYNvlubqU\n5ebOg2boynZgzakwFMQZhhrQq6o2x2AAgzGUfP7HC6K7N6IQXPD9ND/8JUDQdr0T\nP4ZJrftLkya0PYVsPbkYpLZEzDBrKiwoHGmrWrRPpHkUASImXA2EKGygTim15hkQ\nUclatkNVnGV6JluAy+63hIgMapS0/99GITGYfdMVquQ3B9I+HDOmH7IRJ0PqoMMK\nvorJrW/IDRjUDfJft1SlGyN6lamxVbobF5U9JUJNrQKBgQDxfksBW9556QU8wyzl\nTxbtGjInAuqWT6MXdoJPkOY4ukClYr9PWTFfzQCj9/X2RnJ9yBwAYV011zz7a1AS\n+WHa/QsJiXqUrVR7wtTNLuKegWxNqM33OEKvTYow4NEWtZ3a9NDJNYDjybk39OEa\nR1+ouZ89ZWr7dLQspi5M7vqD1wKBgQDZPeiqqiXdWSu3u5cOEYQ8D2L3ppb4zXZa\nsDwqBxX55quIGOeBcjirNXMK0hbSMGJeRpvfq17ypuYUF/dhG543JTscKpCUji9i\nbNVLVBhlNn6hzjL1qSldTdcJwngFFCd8EW4IdVz9ug8606nwq6li7TUjS1NztrJA\nEd+ZQNB6bQKBgEV1j9lKNUlXTpxVfvpNr0hvOnGiExs8uKos+fossSsr1yA6sM//\n1YW6jy6aSXKWfKPVBMjPOGIeEHo4OYXbmNvF4IDTvCA7YoteVJrXm3L/wsjrfqJW\n2kdVxCOe5kTj5A1wUQUukG30PYPsuTo3wTnkefrMyuKchJ47BiI2snNtAoGBAKYu\nQo5TDBYQAW5SVNIROjuLdaSGThTTb0cea1enBfudpfe9PVL7Yjgt8ewEHCr7kjQW\nBWULPd2XKIeUcctaCiSbGWWJdgH95md/Y4Z1NRgvoJz8FGVx2s+iHO49Ufxol2/E\nEYzs4o7BRqc0hVoypqejVzPBinwI9MAoLAia2R/dAoGBALaTXP+zujc8oihUaniH\nyMeOkRU5RBWHBxOm14HT+ZTga0VpoQfYq/LQpYi7huRQ+BLH08s+jKT8N2gWJcMF\nx3bB2NHSYXHnpBVIgyJN9Zkyl3NPqbh2VWpyd0j1+lgMv2tHlui6MarqnQaRpEW1\nm9v46l9dTGTvJIT5u07uYfvP\n-----END PRIVATE KEY-----\n",
  "client_email": "base-project@long-walker-364002.iam.gserviceaccount.com",
  "client_id": "111568853473669859875",
  "auth_uri": "https://accounts.google.com/o/oauth2/auth",
  "token_uri": "https://oauth2.googleapis.com/token",
  "auth_provider_x509_cert_url": "https://www.googleapis.com/oauth2/v1/certs",
  "client_x509_cert_url": "https://www.googleapis.com/robot/v1/metadata/x509/base-project%40long-walker-364002.iam.gserviceaccount.com"
}
